<svg width="63" height="30" viewBox="0 0 63 30" fill="none" xmlns="http://www.w3.org/2000/svg">
<g clip-path="url(#clip0)">
<path d="M26.1944 20.4323C22.6296 25.3188 15.7757 26.335 10.9271 22.6917V22.6809C9.83434 21.8593 8.93252 20.7566 8.34899 19.4052C7.89278 18.335 7.68058 17.2323 7.68058 16.1404C7.75485 11.1674 12.3913 9.21064 12.3913 9.21064C12.4443 9.19983 12.4761 9.15659 12.4974 9.11334C12.5292 9.01605 12.4867 8.91875 12.4019 8.88632C12.37 8.8755 12.3276 8.8755 12.2958 8.88632C12.3488 8.86469 12.3382 8.86469 12.2746 8.88632C12.2639 8.88632 12.2533 8.89713 12.2533 8.89713C6.88486 11.3728 4.45526 17.7944 6.84242 23.3296C8.30655 26.7242 11.203 28.9944 14.5238 29.7296C10.0996 29.6755 6.0467 26.8755 4.50831 22.3998C2.5243 16.6485 5.53744 10.3025 11.2136 8.24848H11.2242C12.4974 7.78361 13.9084 7.64307 15.3301 7.90253C16.4548 8.10794 17.4733 8.55118 18.3645 9.1674C22.3749 12.0106 21.3564 17.0269 21.3564 17.0269C21.3458 17.0809 21.3458 17.135 21.3776 17.1782C21.4307 17.2647 21.5368 17.2755 21.6216 17.2215C21.6535 17.1998 21.6747 17.1674 21.6853 17.135C21.6747 17.189 21.6853 17.1782 21.6959 17.1133C21.6959 17.1025 21.6959 17.0917 21.6959 17.0809C22.6932 11.1566 18.8313 5.50253 12.996 4.42145C9.09167 3.69713 5.50561 4.92956 3.04418 7.7728C5.2722 3.72956 9.61154 1.66469 14.2904 2.60523C20.1575 3.78361 23.9982 9.64307 22.863 15.6755H22.8524C22.5977 17.0377 22.0036 18.335 21.0593 19.4593C20.3167 20.3458 19.4148 21.016 18.4494 21.4809C14.0145 23.5782 10.2906 20.1512 10.2906 20.1512C10.2587 20.1187 10.2057 20.0863 10.1526 20.0971C10.0571 20.1079 9.98287 20.1944 9.99348 20.2917C9.99348 20.335 10.0147 20.3674 10.0359 20.389C9.99348 20.3566 10.0041 20.3674 10.0465 20.3998C10.0571 20.4106 10.0571 20.4106 10.0678 20.4215C14.5768 24.3025 21.314 23.7728 25.1865 19.1998C27.3296 16.6593 28.0405 12.7998 27.6161 9.70794C28.7301 13.016 28.4012 17.416 26.1944 20.4323ZM28.3481 10.6701C28.0829 10.0539 27.7752 9.45929 27.4251 8.89713C26.8734 6.86469 25.7594 4.96199 24.0937 3.4701C21.2291 0.907936 17.6218 -0.216388 14.1206 0.0322603C10.6088 0.280909 7.19254 1.91334 4.70989 4.85388C3.78685 5.94578 3.05479 7.13496 2.5243 8.39983C1.39968 9.79442 0.603961 11.4701 0.243233 13.3512C-0.467612 17.1674 0.402378 20.8971 2.39699 23.8593C4.3916 26.8215 7.48961 28.9944 11.2454 29.6863C12.5504 29.9242 13.8554 29.9674 15.1179 29.8377C17.1232 30.1836 19.2345 29.9674 21.2291 29.0917C24.7303 27.5566 27.2766 24.735 28.5709 21.3944C29.8547 18.0647 29.8865 14.216 28.3481 10.6701Z" fill="white"/>
<path d="M32.3066 21.5676V9.83789H34.8317V19.2217H40.5715V21.5676H32.3066Z" fill="white"/>
<path d="M48.2844 13.946C48.2844 12.7892 47.4993 12.173 46.2262 12.173H44.274V15.7622H46.2792C47.5418 15.7622 48.2844 14.9946 48.2844 13.9892V13.946ZM46.1943 18.0541H44.274V21.5676H41.7383V9.83789H46.4384C49.1862 9.83789 50.8413 11.4919 50.8413 13.8919V13.9244C50.852 16.6487 48.7831 18.0541 46.1943 18.0541Z" fill="white"/>
<path d="M51.9863 21.5676V9.83789H60.665V12.1406H54.5008V14.519H59.9223V16.8109H54.5008V19.2757H60.7499V21.5676H51.9863Z" fill="white"/>
<path d="M61.7679 8.18387H61.8952C62.065 8.18387 62.1605 8.23793 62.1605 8.36766C62.1605 8.48658 62.0756 8.54063 61.9164 8.54063H61.7785V8.18387H61.7679ZM61.4814 7.98928V9.20009H61.7679V8.70279H61.9058L62.1286 9.20009H62.4469L62.1817 8.65955C62.3408 8.61631 62.4363 8.49739 62.4363 8.33523C62.4363 8.1082 62.2666 7.98928 61.927 7.98928H61.4814ZM61.927 7.7082C62.1711 7.7082 62.3939 7.8055 62.5636 7.97847C62.7334 8.15144 62.8182 8.36766 62.8182 8.63793C62.8182 8.87577 62.7228 9.10279 62.553 9.26496C62.3726 9.43793 62.1498 9.53523 61.9164 9.53523C61.683 9.53523 61.4496 9.43793 61.2799 9.25414C61.1101 9.08117 61.0252 8.85414 61.0252 8.61631C61.0252 8.37847 61.1207 8.14063 61.3011 7.96766C61.4708 7.79468 61.683 7.7082 61.927 7.7082ZM61.927 7.52441C61.5451 7.52441 61.2056 7.71901 61.0146 8.05414C60.9085 8.23793 60.8555 8.42171 60.8555 8.62712C60.8555 8.9082 60.9616 9.17847 61.1632 9.38388C61.3647 9.60009 61.6406 9.71901 61.927 9.71901C62.2029 9.71901 62.4787 9.6109 62.6803 9.4055C62.8819 9.20009 62.9986 8.92982 62.9986 8.63793C62.9986 8.34604 62.8925 8.07577 62.6909 7.87036C62.4894 7.64333 62.2135 7.52441 61.927 7.52441Z" fill="white"/>
</g>
<defs>
<clipPath id="clip0">
<path d="M0 0H63V30H0V0Z" fill="white"/>
</clipPath>
</defs>
</svg>
